simulation/qsim/DTCI.msim.vcd
$comment
	File created using the following command:
		vcd file DTCI.msim.vcd -direction
$end
$date
	Wed Dec 21 10:26:38 2022
$end
$version
	ModelSim Version 10.5b
$end
$timescale
	1ps
$end

$scope module DTCI_vlg_vec_tst $end
$var reg 1 ! clk $end
$var reg 8 " Ex [7:0] $end
$var reg 8 # Ey [7:0] $end
$var reg 23 $ Fx [22:0] $end
$var reg 23 % Fy [22:0] $end
$var reg 1 & gnd $end
$var reg 1 ' reset $end
$var wire 1 ( Ediff [7] $end
$var wire 1 ) Ediff [6] $end
$var wire 1 * Ediff [5] $end
$var wire 1 + Ediff [4] $end
$var wire 1 , Ediff [3] $end
$var wire 1 - Ediff [2] $end
$var wire 1 . Ediff [1] $end
$var wire 1 / Ediff [0] $end
$var wire 1 0 REz [7] $end
$var wire 1 1 REz [6] $end
$var wire 1 2 REz [5] $end
$var wire 1 3 REz [4] $end
$var wire 1 4 REz [3] $end
$var wire 1 5 REz [2] $end
$var wire 1 6 REz [1] $end
$var wire 1 7 REz [0] $end
$var wire 1 8 RFz [22] $end
$var wire 1 9 RFz [21] $end
$var wire 1 : RFz [20] $end
$var wire 1 ; RFz [19] $end
$var wire 1 < RFz [18] $end
$var wire 1 = RFz [17] $end
$var wire 1 > RFz [16] $end
$var wire 1 ? RFz [15] $end
$var wire 1 @ RFz [14] $end
$var wire 1 A RFz [13] $end
$var wire 1 B RFz [12] $end
$var wire 1 C RFz [11] $end
$var wire 1 D RFz [10] $end
$var wire 1 E RFz [9] $end
$var wire 1 F RFz [8] $end
$var wire 1 G RFz [7] $end
$var wire 1 H RFz [6] $end
$var wire 1 I RFz [5] $end
$var wire 1 J RFz [4] $end
$var wire 1 K RFz [3] $end
$var wire 1 L RFz [2] $end
$var wire 1 M RFz [1] $end
$var wire 1 N RFz [0] $end
$var wire 1 O shiftR5 $end

$scope module i1 $end
$var wire 1 P vcc $end
$var wire 1 Q unknown $end
$var tri1 1 R devclrn $end
$var tri1 1 S devpor $end
$var tri1 1 T devoe $end
$var wire 1 U reset~input_o $end
$var wire 1 V clk~input_o $end
$var wire 1 W inst20|fstate.S0~0_combout $end
$var wire 1 X inst20|fstate.S0~q $end
$var wire 1 Y inst20|reg_fstate.S1~0_combout $end
$var wire 1 Z inst20|fstate.S1~0_combout $end
$var wire 1 [ inst20|fstate.S1~q $end
$var wire 1 \ inst17|Add0~29_sumout $end
$var wire 1 ] inst20|ON22~0_combout $end
$var wire 1 ^ inst20|ON21~0_combout $end
$var wire 1 _ Ex[7]~input_o $end
$var wire 1 ` Ey[7]~input_o $end
$var wire 1 a Ex[6]~input_o $end
$var wire 1 b Ey[6]~input_o $end
$var wire 1 c Ex[5]~input_o $end
$var wire 1 d Ey[5]~input_o $end
$var wire 1 e Ex[4]~input_o $end
$var wire 1 f Ey[4]~input_o $end
$var wire 1 g Ex[3]~input_o $end
$var wire 1 h Ey[3]~input_o $end
$var wire 1 i Ex[2]~input_o $end
$var wire 1 j Ey[2]~input_o $end
$var wire 1 k Ex[1]~input_o $end
$var wire 1 l inst15|xor1[1]~combout $end
$var wire 1 m Ey[1]~input_o $end
$var wire 1 n Ey[0]~input_o $end
$var wire 1 o inst20|LOAD6~0_combout $end
$var wire 1 p inst1|_~22 $end
$var wire 1 q inst1|_~23 $end
$var wire 1 r inst1|_~19 $end
$var wire 1 s inst1|_~20 $end
$var wire 1 t inst1|_~16 $end
$var wire 1 u inst1|_~17 $end
$var wire 1 v inst1|_~13 $end
$var wire 1 w inst1|_~14 $end
$var wire 1 x inst1|_~10 $end
$var wire 1 y inst1|_~11 $end
$var wire 1 z inst1|_~7 $end
$var wire 1 { inst1|_~8 $end
$var wire 1 | inst1|_~4 $end
$var wire 1 } inst1|_~5 $end
$var wire 1 ~ inst1|_~1 $end
$var wire 1 !! inst1|_~2 $end
$var wire 1 "! inst1|sign~sumout $end
$var wire 1 #! inst20|reg_fstate.S2~0_combout $end
$var wire 1 $! inst20|fstate.S2~q $end
$var wire 1 %! Ex[0]~input_o $end
$var wire 1 &! inst15|xor1[0]~combout $end
$var wire 1 '! inst17|Equal0~1_combout $end
$var wire 1 (! inst20|Selector3~0_combout $end
$var wire 1 )! inst20|reg_fstate.S4~0_combout $end
$var wire 1 *! inst20|fstate.S4~q $end
$var wire 1 +! inst20|COUNTD6~0_combout $end
$var wire 1 ,! inst17|Ediff[6]~0_combout $end
$var wire 1 -! inst17|Add0~30 $end
$var wire 1 .! inst17|Add0~25_sumout $end
$var wire 1 /! inst17|Add0~26 $end
$var wire 1 0! inst17|Add0~21_sumout $end
$var wire 1 1! inst17|Add0~22 $end
$var wire 1 2! inst17|Add0~17_sumout $end
$var wire 1 3! inst17|Add0~18 $end
$var wire 1 4! inst17|Add0~13_sumout $end
$var wire 1 5! inst17|Add0~14 $end
$var wire 1 6! inst17|Add0~9_sumout $end
$var wire 1 7! inst17|Add0~10 $end
$var wire 1 8! inst17|Add0~5_sumout $end
$var wire 1 9! inst17|Add0~6 $end
$var wire 1 :! inst17|Add0~1_sumout $end
$var wire 1 ;! inst17|Equal0~0_combout $end
$var wire 1 <! inst20|Selector3~1_combout $end
$var wire 1 =! inst20|fstate.S6~q $end
$var wire 1 >! inst20|reg_fstate.S5~0_combout $end
$var wire 1 ?! inst20|fstate.S5~q $end
$var wire 1 @! inst10|d~1_combout $end
$var wire 1 A! inst20|reg_fstate.S3~0_combout $end
$var wire 1 B! inst20|fstate.S3~q $end
$var wire 1 C! inst7|d~1_combout $end
$var wire 1 D! Fy[22]~input_o $end
$var wire 1 E! inst20|CLEAR4~0_combout $end
$var wire 1 F! inst10|d[14]~0_combout $end
$var wire 1 G! Fx[22]~input_o $end
$var wire 1 H! inst20|CLEAR3~0_combout $end
$var wire 1 I! inst7|d[9]~0_combout $end
$var wire 1 J! Fy[21]~input_o $end
$var wire 1 K! Fx[21]~input_o $end
$var wire 1 L! Fy[20]~input_o $end
$var wire 1 M! Fx[20]~input_o $end
$var wire 1 N! Fy[19]~input_o $end
$var wire 1 O! Fx[19]~input_o $end
$var wire 1 P! Fy[18]~input_o $end
$var wire 1 Q! Fx[18]~input_o $end
$var wire 1 R! Fy[17]~input_o $end
$var wire 1 S! Fx[17]~input_o $end
$var wire 1 T! Fy[16]~input_o $end
$var wire 1 U! Fx[16]~input_o $end
$var wire 1 V! Fy[15]~input_o $end
$var wire 1 W! Fx[15]~input_o $end
$var wire 1 X! Fy[14]~input_o $end
$var wire 1 Y! Fx[14]~input_o $end
$var wire 1 Z! Fy[13]~input_o $end
$var wire 1 [! Fx[13]~input_o $end
$var wire 1 \! Fy[12]~input_o $end
$var wire 1 ]! Fx[12]~input_o $end
$var wire 1 ^! Fy[11]~input_o $end
$var wire 1 _! Fx[11]~input_o $end
$var wire 1 `! Fy[10]~input_o $end
$var wire 1 a! Fx[10]~input_o $end
$var wire 1 b! Fy[9]~input_o $end
$var wire 1 c! Fx[9]~input_o $end
$var wire 1 d! Fy[8]~input_o $end
$var wire 1 e! Fx[8]~input_o $end
$var wire 1 f! Fy[7]~input_o $end
$var wire 1 g! Fx[7]~input_o $end
$var wire 1 h! Fy[6]~input_o $end
$var wire 1 i! Fx[6]~input_o $end
$var wire 1 j! Fy[5]~input_o $end
$var wire 1 k! Fx[5]~input_o $end
$var wire 1 l! Fy[4]~input_o $end
$var wire 1 m! Fx[4]~input_o $end
$var wire 1 n! Fy[3]~input_o $end
$var wire 1 o! Fx[3]~input_o $end
$var wire 1 p! Fy[2]~input_o $end
$var wire 1 q! Fx[2]~input_o $end
$var wire 1 r! Fy[1]~input_o $end
$var wire 1 s! Fx[1]~input_o $end
$var wire 1 t! gnd~input_o $end
$var wire 1 u! Fy[0]~input_o $end
$var wire 1 v! Fx[0]~input_o $end
$var wire 1 w! inst12|_~70 $end
$var wire 1 x! inst12|_~71 $end
$var wire 1 y! inst12|_~67 $end
$var wire 1 z! inst12|_~68 $end
$var wire 1 {! inst12|_~64 $end
$var wire 1 |! inst12|_~65 $end
$var wire 1 }! inst12|_~61 $end
$var wire 1 ~! inst12|_~62 $end
$var wire 1 !" inst12|_~58 $end
$var wire 1 "" inst12|_~59 $end
$var wire 1 #" inst12|_~55 $end
$var wire 1 $" inst12|_~56 $end
$var wire 1 %" inst12|_~52 $end
$var wire 1 &" inst12|_~53 $end
$var wire 1 '" inst12|_~49 $end
$var wire 1 (" inst12|_~50 $end
$var wire 1 )" inst12|_~46 $end
$var wire 1 *" inst12|_~47 $end
$var wire 1 +" inst12|_~43 $end
$var wire 1 ," inst12|_~44 $end
$var wire 1 -" inst12|_~40 $end
$var wire 1 ." inst12|_~41 $end
$var wire 1 /" inst12|_~37 $end
$var wire 1 0" inst12|_~38 $end
$var wire 1 1" inst12|_~34 $end
$var wire 1 2" inst12|_~35 $end
$var wire 1 3" inst12|_~31 $end
$var wire 1 4" inst12|_~32 $end
$var wire 1 5" inst12|_~28 $end
$var wire 1 6" inst12|_~29 $end
$var wire 1 7" inst12|_~25 $end
$var wire 1 8" inst12|_~26 $end
$var wire 1 9" inst12|_~22 $end
$var wire 1 :" inst12|_~23 $end
$var wire 1 ;" inst12|_~19 $end
$var wire 1 <" inst12|_~20 $end
$var wire 1 =" inst12|_~16 $end
$var wire 1 >" inst12|_~17 $end
$var wire 1 ?" inst12|_~13 $end
$var wire 1 @" inst12|_~14 $end
$var wire 1 A" inst12|_~10 $end
$var wire 1 B" inst12|_~11 $end
$var wire 1 C" inst12|_~7 $end
$var wire 1 D" inst12|_~8 $end
$var wire 1 E" inst12|_~4 $end
$var wire 1 F" inst12|_~5 $end
$var wire 1 G" inst12|_~73 $end
$var wire 1 H" inst12|_~74 $end
$var wire 1 I" inst12|cout~sumout $end
$var wire 1 J" inst20|Selector4~0_combout $end
$var wire 1 K" inst20|Selector4~1_combout $end
$var wire 1 L" inst20|fstate.S7~q $end
$var wire 1 M" inst20|reg_fstate.S8~0_combout $end
$var wire 1 N" inst20|fstate.S8~q $end
$var wire 1 O" inst20|SHIFTR5~0_combout $end
$var wire 1 P" inst16|Add0~29_sumout $end
$var wire 1 Q" inst5|Q~combout $end
$var wire 1 R" inst16|REz~8_combout $end
$var wire 1 S" inst16|REz[4]~1_combout $end
$var wire 1 T" inst16|Add0~30 $end
$var wire 1 U" inst16|Add0~25_sumout $end
$var wire 1 V" inst16|REz~7_combout $end
$var wire 1 W" inst16|Add0~26 $end
$var wire 1 X" inst16|Add0~21_sumout $end
$var wire 1 Y" inst16|REz~6_combout $end
$var wire 1 Z" inst16|Add0~22 $end
$var wire 1 [" inst16|Add0~17_sumout $end
$var wire 1 \" inst16|REz~5_combout $end
$var wire 1 ]" inst16|Add0~18 $end
$var wire 1 ^" inst16|Add0~13_sumout $end
$var wire 1 _" inst16|REz~4_combout $end
$var wire 1 `" inst16|Add0~14 $end
$var wire 1 a" inst16|Add0~9_sumout $end
$var wire 1 b" inst16|REz~3_combout $end
$var wire 1 c" inst16|Add0~10 $end
$var wire 1 d" inst16|Add0~5_sumout $end
$var wire 1 e" inst16|REz~2_combout $end
$var wire 1 f" inst16|Add0~6 $end
$var wire 1 g" inst16|Add0~1_sumout $end
$var wire 1 h" inst16|REz~0_combout $end
$var wire 1 i" ~GND~combout $end
$var wire 1 j" inst6|d~24_combout $end
$var wire 1 k" inst6|d~23_combout $end
$var wire 1 l" inst6|d~22_combout $end
$var wire 1 m" inst6|d[7]~1_combout $end
$var wire 1 n" inst6|d~21_combout $end
$var wire 1 o" inst6|d~20_combout $end
$var wire 1 p" inst6|d~19_combout $end
$var wire 1 q" inst6|d~18_combout $end
$var wire 1 r" inst6|d~17_combout $end
$var wire 1 s" inst6|d~16_combout $end
$var wire 1 t" inst6|d~15_combout $end
$var wire 1 u" inst6|d~14_combout $end
$var wire 1 v" inst6|d~13_combout $end
$var wire 1 w" inst6|d~12_combout $end
$var wire 1 x" inst6|d~11_combout $end
$var wire 1 y" inst6|d~10_combout $end
$var wire 1 z" inst6|d~9_combout $end
$var wire 1 {" inst6|d~8_combout $end
$var wire 1 |" inst6|d~7_combout $end
$var wire 1 }" inst6|d~6_combout $end
$var wire 1 ~" inst6|d~5_combout $end
$var wire 1 !# inst6|d~4_combout $end
$var wire 1 "# inst6|d~3_combout $end
$var wire 1 ## inst6|d~2_combout $end
$var wire 1 $# inst6|d~0_combout $end
$var wire 1 %# inst6|d [23] $end
$var wire 1 &# inst6|d [22] $end
$var wire 1 '# inst6|d [21] $end
$var wire 1 (# inst6|d [20] $end
$var wire 1 )# inst6|d [19] $end
$var wire 1 *# inst6|d [18] $end
$var wire 1 +# inst6|d [17] $end
$var wire 1 ,# inst6|d [16] $end
$var wire 1 -# inst6|d [15] $end
$var wire 1 .# inst6|d [14] $end
$var wire 1 /# inst6|d [13] $end
$var wire 1 0# inst6|d [12] $end
$var wire 1 1# inst6|d [11] $end
$var wire 1 2# inst6|d [10] $end
$var wire 1 3# inst6|d [9] $end
$var wire 1 4# inst6|d [8] $end
$var wire 1 5# inst6|d [7] $end
$var wire 1 6# inst6|d [6] $end
$var wire 1 7# inst6|d [5] $end
$var wire 1 8# inst6|d [4] $end
$var wire 1 9# inst6|d [3] $end
$var wire 1 :# inst6|d [2] $end
$var wire 1 ;# inst6|d [1] $end
$var wire 1 <# inst6|d [0] $end
$var wire 1 =# inst17|Ediff [7] $end
$var wire 1 ># inst17|Ediff [6] $end
$var wire 1 ?# inst17|Ediff [5] $end
$var wire 1 @# inst17|Ediff [4] $end
$var wire 1 A# inst17|Ediff [3] $end
$var wire 1 B# inst17|Ediff [2] $end
$var wire 1 C# inst17|Ediff [1] $end
$var wire 1 D# inst17|Ediff [0] $end
$var wire 1 E# inst16|REz [7] $end
$var wire 1 F# inst16|REz [6] $end
$var wire 1 G# inst16|REz [5] $end
$var wire 1 H# inst16|REz [4] $end
$var wire 1 I# inst16|REz [3] $end
$var wire 1 J# inst16|REz [2] $end
$var wire 1 K# inst16|REz [1] $end
$var wire 1 L# inst16|REz [0] $end
$var wire 1 M# inst1|suma [7] $end
$var wire 1 N# inst1|suma [6] $end
$var wire 1 O# inst1|suma [5] $end
$var wire 1 P# inst1|suma [4] $end
$var wire 1 Q# inst1|suma [3] $end
$var wire 1 R# inst1|suma [2] $end
$var wire 1 S# inst1|suma [1] $end
$var wire 1 T# inst1|suma [0] $end
$var wire 1 U# inst12|suma [23] $end
$var wire 1 V# inst12|suma [22] $end
$var wire 1 W# inst12|suma [21] $end
$var wire 1 X# inst12|suma [20] $end
$var wire 1 Y# inst12|suma [19] $end
$var wire 1 Z# inst12|suma [18] $end
$var wire 1 [# inst12|suma [17] $end
$var wire 1 \# inst12|suma [16] $end
$var wire 1 ]# inst12|suma [15] $end
$var wire 1 ^# inst12|suma [14] $end
$var wire 1 _# inst12|suma [13] $end
$var wire 1 `# inst12|suma [12] $end
$var wire 1 a# inst12|suma [11] $end
$var wire 1 b# inst12|suma [10] $end
$var wire 1 c# inst12|suma [9] $end
$var wire 1 d# inst12|suma [8] $end
$var wire 1 e# inst12|suma [7] $end
$var wire 1 f# inst12|suma [6] $end
$var wire 1 g# inst12|suma [5] $end
$var wire 1 h# inst12|suma [4] $end
$var wire 1 i# inst12|suma [3] $end
$var wire 1 j# inst12|suma [2] $end
$var wire 1 k# inst12|suma [1] $end
$var wire 1 l# inst12|suma [0] $end
$var wire 1 m# inst|out [7] $end
$var wire 1 n# inst|out [6] $end
$var wire 1 o# inst|out [5] $end
$var wire 1 p# inst|out [4] $end
$var wire 1 q# inst|out [3] $end
$var wire 1 r# inst|out [2] $end
$var wire 1 s# inst|out [1] $end
$var wire 1 t# inst|out [0] $end
$var wire 1 u# inst10|d [23] $end
$var wire 1 v# inst10|d [22] $end
$var wire 1 w# inst10|d [21] $end
$var wire 1 x# inst10|d [20] $end
$var wire 1 y# inst10|d [19] $end
$var wire 1 z# inst10|d [18] $end
$var wire 1 {# inst10|d [17] $end
$var wire 1 |# inst10|d [16] $end
$var wire 1 }# inst10|d [15] $end
$var wire 1 ~# inst10|d [14] $end
$var wire 1 !$ inst10|d [13] $end
$var wire 1 "$ inst10|d [12] $end
$var wire 1 #$ inst10|d [11] $end
$var wire 1 $$ inst10|d [10] $end
$var wire 1 %$ inst10|d [9] $end
$var wire 1 &$ inst10|d [8] $end
$var wire 1 '$ inst10|d [7] $end
$var wire 1 ($ inst10|d [6] $end
$var wire 1 )$ inst10|d [5] $end
$var wire 1 *$ inst10|d [4] $end
$var wire 1 +$ inst10|d [3] $end
$var wire 1 ,$ inst10|d [2] $end
$var wire 1 -$ inst10|d [1] $end
$var wire 1 .$ inst10|d [0] $end
$var wire 1 /$ inst9|out [7] $end
$var wire 1 0$ inst9|out [6] $end
$var wire 1 1$ inst9|out [5] $end
$var wire 1 2$ inst9|out [4] $end
$var wire 1 3$ inst9|out [3] $end
$var wire 1 4$ inst9|out [2] $end
$var wire 1 5$ inst9|out [1] $end
$var wire 1 6$ inst9|out [0] $end
$var wire 1 7$ inst7|d [23] $end
$var wire 1 8$ inst7|d [22] $end
$var wire 1 9$ inst7|d [21] $end
$var wire 1 :$ inst7|d [20] $end
$var wire 1 ;$ inst7|d [19] $end
$var wire 1 <$ inst7|d [18] $end
$var wire 1 =$ inst7|d [17] $end
$var wire 1 >$ inst7|d [16] $end
$var wire 1 ?$ inst7|d [15] $end
$var wire 1 @$ inst7|d [14] $end
$var wire 1 A$ inst7|d [13] $end
$var wire 1 B$ inst7|d [12] $end
$var wire 1 C$ inst7|d [11] $end
$var wire 1 D$ inst7|d [10] $end
$var wire 1 E$ inst7|d [9] $end
$var wire 1 F$ inst7|d [8] $end
$var wire 1 G$ inst7|d [7] $end
$var wire 1 H$ inst7|d [6] $end
$var wire 1 I$ inst7|d [5] $end
$var wire 1 J$ inst7|d [4] $end
$var wire 1 K$ inst7|d [3] $end
$var wire 1 L$ inst7|d [2] $end
$var wire 1 M$ inst7|d [1] $end
$var wire 1 N$ inst7|d [0] $end
$upscope $end
$upscope $end
$enddefinitions $end
#0
$dumpvars
0!
b1100100 "
b10000011 #
b10011100111000000111010 $
b10010101110000101000111 %
0&
1'
0@"
0A"
0B"
0C"
0D"
0E"
0F"
0G"
0H"
0I"
1J"
0K"
0L"
0M"
0N"
0O"
1P"
0Q"
0R"
0S"
0T"
0U"
0V"
0W"
0X"
0Y"
0Z"
0["
0\"
0]"
0^"
0_"
0`"
0a"
0b"
0c"
0d"
0e"
0f"
0g"
0h"
0i"
0j"
0k"
0l"
0m"
0n"
0o"
0p"
0q"
0r"
0s"
0t"
0u"
0v"
0w"
0x"
0y"
0z"
0{"
0|"
0}"
0~"
0!#
0"#
0##
0$#
0<#
0;#
0:#
09#
08#
07#
06#
05#
04#
03#
02#
01#
00#
0/#
0.#
0-#
0,#
0+#
0*#
0)#
0(#
0'#
0&#
0%#
0D#
0C#
0B#
0A#
0@#
0?#
0>#
0=#
0L#
0K#
0J#
0I#
0H#
0G#
0F#
0E#
0T#
0S#
0R#
0Q#
0P#
0O#
0N#
0M#
0l#
0k#
0j#
0i#
0h#
0g#
0f#
0e#
0d#
0c#
0b#
0a#
0`#
0_#
0^#
0]#
0\#
0[#
0Z#
0Y#
0X#
0W#
0V#
0U#
0t#
0s#
0r#
0q#
0p#
0o#
0n#
0m#
0.$
0-$
0,$
0+$
0*$
0)$
0($
0'$
0&$
0%$
0$$
0#$
0"$
0!$
0~#
0}#
0|#
0{#
0z#
0y#
0x#
0w#
0v#
0u#
06$
05$
04$
03$
02$
01$
00$
0/$
0N$
0M$
0L$
0K$
0J$
0I$
0H$
0G$
0F$
0E$
0D$
0C$
0B$
0A$
0@$
0?$
0>$
0=$
0<$
0;$
0:$
09$
08$
07$
0/
0.
0-
0,
0+
0*
0)
0(
07
06
05
04
03
02
01
00
0N
0M
0L
0K
0J
0I
0H
0G
0F
0E
0D
0C
0B
0A
0@
0?
0>
0=
0<
0;
0:
09
08
0O
1P
xQ
1R
1S
1T
1U
0V
0W
0X
1Y
0Z
0[
1\
0]
0^
0_
1`
1a
0b
1c
0d
0e
0f
0g
0h
1i
0j
0k
0l
1m
1n
1o
0p
0q
0r
0s
0t
0u
0v
0w
0x
0y
0z
0{
0|
0}
0~
0!!
0"!
0#!
0$!
0%!
0&!
1'!
1(!
0)!
0*!
1+!
0,!
0-!
1.!
0/!
10!
01!
12!
03!
14!
05!
16!
07!
18!
09!
1:!
1;!
0<!
0=!
0>!
0?!
0@!
0A!
0B!
0C!
1D!
0E!
0F!
1G!
0H!
0I!
0J!
0K!
0L!
0M!
1N!
1O!
0P!
1Q!
1R!
1S!
0T!
0U!
1V!
0W!
1X!
1Y!
1Z!
1[!
0\!
1]!
0^!
0_!
0`!
0a!
0b!
0c!
1d!
0e!
0f!
0g!
1h!
0i!
0j!
1k!
0l!
1m!
0n!
1o!
1p!
0q!
1r!
1s!
0t!
1u!
0v!
0w!
0x!
0y!
0z!
0{!
0|!
0}!
0~!
0!"
0""
0#"
0$"
0%"
0&"
0'"
0("
0)"
0*"
0+"
0,"
0-"
0."
0/"
00"
01"
02"
03"
04"
05"
06"
07"
08"
09"
0:"
0;"
0<"
0="
0>"
0?"
$end
#10000
1!
1V
#20000
0!
0V
#30000
1!
1V
#40000
0!
0V
#50000
1!
1V
#60000
0!
0V
#70000
1!
1V
#80000
0!
0V
#90000
1!
1V
#100000
0!
0V
#110000
1!
1V
#120000
0!
0V
#130000
1!
1V
#140000
0!
0V
#150000
1!
1V
#160000
0!
0V
#170000
1!
1V
#180000
0!
0V
#190000
1!
1V
#200000
0!
0V
#210000
1!
1V
#220000
0'
0!
0U
0V
1I!
1F!
0Y
1C!
1@!
1W
1Z
#230000
1!
1V
1.$
1M$
1-$
1,$
1K$
1J$
1I$
1($
1&$
1B$
1A$
1!$
1@$
1~#
1}#
1=$
1{#
1<$
1;$
1y#
18$
1v#
17$
1u#
16$
15$
1r#
1o#
1n#
1/$
1M#
1e"
1N#
1b"
1O#
1Y"
1R#
1S#
1T#
1H"
1F"
1@"
1Z#
1<"
1]#
16"
14"
1`#
1d#
1f#
1g#
1h#
1i#
1j#
1z!
1l#
1I"
1U#
1X#
1="
0Z#
17"
0]#
1^#
1{!
0j#
1n"
1o"
1p"
1q"
1r"
1t"
1x"
1{"
1~"
1Y#
1\#
1}!
0i#
0n"
1z"
0{"
0~"
1"#
1!"
0h#
0o"
1|"
1!#
1#"
0g#
0p"
1%"
0f#
0q"
1e#
0r"
1s"
#240000
0!
0V
1X
1[
1,!
1"!
0o
1]
0I!
0F!
1Y
1K"
0M#
0N#
1}
0O#
1{
1P#
1Q#
0R#
1u
0S#
0Z
1#!
0K"
1M#
1N#
1v
0Q#
1x
0P#
1O#
#250000
1!
1V
1=#
1>#
1?#
1D#
1/
1*
1)
1(
0'!
1-!
0;!
17!
0(!
19!
0\
06!
08!
0:!
1/!
0.!
18!
1:!
11!
00!
13!
02!
15!
04!
16!
#260000
0!
0V
0[
1$!
1&!
1l
1^
0]
1Q"
1!!
0}
0{
0u
1s
1q
0#!
1A!
0"!
0M#
0N#
0v
1Q#
1R#
1S#
1h"
0e"
0b"
0Y"
1V"
1R"
0x
1P#
0O#
#270000
1!
1V
0=#
0>#
0?#
1@#
1A#
1B#
1C#
1.
1-
1,
1+
0*
0)
0(
1;!
1.!
10!
12!
14!
06!
08!
0:!
#280000
0!
0V
0$!
1B!
0J"
1I!
1H!
0,!
0&!
1"!
1o
0l
0^
0C!
1M#
0!!
1N#
1O#
0P#
0Q#
1t
0R#
1r
0S#
0s
0q
0A!
1K"
0"!
1Q#
0r
1S#
0t
1R#
0Q#
#290000
1!
1V
0M$
0K$
0J$
0I$
0B$
0A$
0@$
0=$
0<$
0;$
08$
07$
1G"
0U#
0H"
1V#
0F"
1?"
0Y#
0@"
0="
1Z#
1[#
0<"
15"
0^#
06"
1_#
04"
0`#
0#"
1g#
0!"
1h#
0}!
1i#
1k#
0z!
0G"
1U#
0?"
1Y#
0Z#
05"
1^#
0%"
1f#
0g#
0h#
0{!
1j#
1l"
1o"
1p"
1q"
0x"
1y"
0z"
1}"
1~"
0!#
1$#
0I"
0X#
07"
1]#
0e#
0i#
1n"
0p"
0q"
1r"
1z"
0~"
1!#
0\#
0o"
0s"
1{"
0"#
0|"
#300000
0!
0V
0B!
1L"
1m"
1k"
1j"
1S"
1J"
0I!
0H!
0K"
#310000
1!
1V
1&#
1)#
1+#
1-#
1.#
1/#
14#
16#
1:#
1;#
1<#
1%#
1E#
1K#
1L#
17
16
10
1N
1M
1L
1H
1F
1A
1@
1?
1=
1;
18
1T"
0P"
1U"
1g"
1W"
0U"
1X"
#320000
0!
0V
0L"
0m"
0S"
#330000
1!
1V
#340000
0!
0V
#350000
1!
1V
#360000
0!
0V
#370000
1!
1V
#380000
0!
0V
#390000
1!
1V
#400000
0!
0V
#410000
1!
1V
#420000
0!
0V
#430000
1!
1V
#440000
0!
0V
#450000
1!
1V
#460000
0!
0V
#470000
1!
1V
#480000
0!
0V
#490000
1!
1V
#500000
0!
0V
#510000
1!
1V
#520000
0!
0V
#530000
1!
1V
#540000
0!
0V
#550000
1!
1V
#560000
0!
0V
#570000
1!
1V
#580000
0!
0V
#590000
1!
1V
#600000
0!
0V
#610000
1!
1V
#620000
0!
0V
#630000
1!
1V
#640000
0!
0V
#650000
1!
1V
#660000
0!
0V
#670000
1!
1V
#680000
0!
0V
#690000
1!
1V
#700000
0!
0V
#710000
1!
1V
#720000
0!
0V
#730000
1!
1V
#740000
0!
0V
#750000
1!
1V
#760000
0!
0V
#770000
1!
1V
#780000
0!
0V
#790000
1!
1V
#800000
0!
0V
#810000
1!
1V
#820000
0!
0V
#830000
1!
1V
#840000
0!
0V
#850000
1!
1V
#860000
0!
0V
#870000
1!
1V
#880000
0!
0V
#890000
1!
1V
#900000
0!
0V
#910000
1!
1V
#920000
0!
0V
#930000
1!
1V
#940000
0!
0V
#950000
1!
1V
#960000
0!
0V
#970000
1!
1V
#980000
0!
0V
#990000
1!
1V
